{
    "count": 27,
    "next": "https://api.spaceflightnewsapi.net/v4/articles/?has_event=true&has_launch=true&is_featured=true&limit=10&offset=10",
    "previous": null,
    "results": [
        {
            "id": 22049,
            "title": "NASA delays crewed Artemis moon missions into 2025 as companies navigate challenges",
            "url": "https://www.cnbc.com/2024/01/09/nasa-delays-crewed-artemis-moon-missions.html",
            "image_url": "https://image.cnbcfm.com/api/v1/image/107301459-1694782519405-gettyimages-1667779661-20090101230915-99-206036.jpeg",
            "news_site": "CNBC",
            "summary": "NASA is pushing back the schedule for upcoming missions of its flagship Artemis lunar program by about a year as the agency’s contractors work to finish technology needed to return U.S. astronauts to the moon’s surface.",
            "published_at": "2024-01-09T19:46:40Z",
            "updated_at": "2024-01-10T17:23:35.311000Z",
            "featured": true,
            "launches": [
                {
                    "launch_id": "41699701-2ef4-4b0c-ac9d-6757820cde87",
                    "provider": "Launch Library 2"
                },
                {
                    "launch_id": "8034d81b-af96-460c-a7b7-5c8e7f1a1d86",
                    "provider": "Launch Library 2"
                }
            ],
            "events": [
                {
                    "event_id": 914,
                    "provider": "Launch Library 2"
                }
            ]
        },
        {
            "id": 20542,
            "title": "India becomes fourth country to land on the moon, first on south pole, with Chandrayaan-3 spacecraft",
            "url": "https://www.cnbc.com/2023/08/23/india-chandrayaan-3-moon-mission.html",
            "image_url": "https://image.cnbcfm.com/api/v1/image/107290501-1692777088868-gettyimages-1531892466-AFP_33P37G8.jpeg",
            "news_site": "CNBC",
            "summary": "India staked new claim as a national superpower in space, landing its Chandrayaan-3 mission safely on the moon’s unexplored south pole on Wednesday.",
            "published_at": "2023-08-23T12:25:14Z",
            "updated_at": "2023-08-23T12:46:57.463000Z",
            "featured": true,
            "launches": [
                {
                    "launch_id": "78f7c31d-4f29-482a-96d1-390b460a0a02",
                    "provider": "Launch Library 2"
                }
            ],
            "events": [
                {
                    "event_id": 780,
                    "provider": "Launch Library 2"
                }
            ]
        },
        {
            "id": 19101,
            "title": "First ispace lunar lander feared lost",
            "url": "https://spacenews.com/first-ispace-lunar-lander-feared-lost/",
            "image_url": "https://i0.wp.com/spacenews.com/wp-content/uploads/2023/04/ispace-landing1.jpg",
            "news_site": "SpaceNews",
            "summary": "Controllers lost contact with a lunar lander developed by a Japanese company moments before its scheduled touchdown, raising fears the spacecraft crashed during its final descent.",
            "published_at": "2023-04-25T17:37:06Z",
            "updated_at": "2023-04-25T17:45:09.977000Z",
            "featured": true,
            "launches": [
                {
                    "launch_id": "2306e0bc-e1a3-4a4a-9285-e1a94073655e",
                    "provider": "Launch Library 2"
                }
            ],
            "events": [
                {
                    "event_id": 730,
                    "provider": "Launch Library 2"
                }
            ]
        },
        {
            "id": 18139,
            "title": "SpaceX successfully test fires Starship booster in last key step before orbital launch",
            "url": "https://www.cnbc.com/2023/02/09/spacex-test-fires-starship-booster.html",
            "image_url": "https://image.cnbcfm.com/api/v1/image/107192274-1675977870645-spacex2.png",
            "news_site": "CNBC",
            "summary": "SpaceX on Thursday test fired 31 of the 33 engines in the towering rocket booster of its Starship prototype, as the company prepares to launch the rocket to orbit for the first time.",
            "published_at": "2023-02-09T21:27:37Z",
            "updated_at": "2023-02-09T21:51:47.623000Z",
            "featured": true,
            "launches": [
                {
                    "launch_id": "e32d375f-0d6e-4e54-b4f2-2b49db657fca",
                    "provider": "Launch Library 2"
                }
            ],
            "events": [
                {
                    "event_id": 715,
                    "provider": "Launch Library 2"
                }
            ]
        },
        {
            "id": 17353,
            "title": "NASA’s Orion spacecraft completes powered flyby of the moon",
            "url": "https://spaceflightnow.com/2022/11/21/nasas-orion-spacecraft-completes-powered-flyby-of-the-moon/",
            "image_url": "https://spaceflightnow.com/wp-content/uploads/2022/11/20221121moonflyby.jpg",
            "news_site": "Spaceflight Now",
            "summary": "NASA’s unpiloted Orion spacecraft fired its main engine for two-and-a-half minutes Monday just before the capsule soared 81 miles from the surface of the moon, completing a flyby maneuver to bend its trajectory toward a distant orbit for more testing ahead of future lunar missions with astronauts.",
            "published_at": "2022-11-21T19:07:02Z",
            "updated_at": "2022-11-22T07:48:33.979000Z",
            "featured": true,
            "launches": [
                {
                    "launch_id": "65896761-b6ca-4df3-9699-e077a360c52a",
                    "provider": "Launch Library 2"
                }
            ],
            "events": [
                {
                    "event_id": 687,
                    "provider": "Launch Library 2"
                }
            ]
        },
        {
            "id": 16817,
            "title": "NASA Confirms DART Mission Impact Changed Asteroid’s Motion in Space",
            "url": "http://www.nasa.gov/press-release/nasa-confirms-dart-mission-impact-changed-asteroid-s-motion-in-space",
            "image_url": "https://www.nasa.gov/sites/default/files/thumbnails/image/3.2_dart_compass_draft2.png?itok=5Q-Zo0uG",
            "news_site": "NASA",
            "summary": "Analysis of data obtained over the past two weeks by NASA’s Double Asteroid Redirection Test (DART) investigation team shows the spacecraft's kinetic impact with its target asteroid, Dimorphos, successfully altered the asteroid’s orbit. This marks humanity’s first time purposely changing the motion of a celestial object and the first full-scale dem",
            "published_at": "2022-10-11T18:20:00Z",
            "updated_at": "2022-10-12T09:01:31.780000Z",
            "featured": true,
            "launches": [
                {
                    "launch_id": "c4b2f90e-3385-4cbe-a89f-fc5f57da1bfb",
                    "provider": "Launch Library 2"
                }
            ],
            "events": [
                {
                    "event_id": 662,
                    "provider": "Launch Library 2"
                }
            ]
        },
        {
            "id": 16635,
            "title": "Brace for impact: DART successfully slams into asteroid",
            "url": "https://www.nasaspaceflight.com/2022/09/dart-impact/",
            "image_url": "https://www.nasaspaceflight.com/wp-content/uploads/2022/09/DART_still-revisedA-1170x658.jpeg",
            "news_site": "NASASpaceflight",
            "summary": "NASA and Johns Hopkins teams have successfully tested the world’s first dedicated planetary defense mission: the Double Asteroid Redirection Test (DART). DART impacted Dimorphos, a moonlet of near-Earth asteroid 65803 Didymos, at 7:14 PM EDT (23:14 UTC) on Monday, September 26, while traveling at an approximate speed of 22,000 kilometers per hour.",
            "published_at": "2022-09-26T18:11:01Z",
            "updated_at": "2022-09-27T06:16:31.587000Z",
            "featured": true,
            "launches": [
                {
                    "launch_id": "c4b2f90e-3385-4cbe-a89f-fc5f57da1bfb",
                    "provider": "Launch Library 2"
                }
            ],
            "events": [
                {
                    "event_id": 626,
                    "provider": "Launch Library 2"
                }
            ]
        },
        {
            "id": 14629,
            "title": "Axiom-1 arrives at ISS for science-packed week on orbit",
            "url": "https://www.nasaspaceflight.com/2022/04/axiom-1-docking/",
            "image_url": "https://www.nasaspaceflight.com/wp-content/uploads/2021/11/iss065e002261_orig-1170x780.jpeg",
            "news_site": "NASASpaceflight",
            "summary": "Crew Dragon Endeavour has successfully docked to the Node-2 zenith port — otherwise called the Harmony space-facing port — at 8:29 am EDT (12:29 UTC) after launching at 11:17 am EDT (15:17 UTC) the previous day. Docking was delayed for nearly 45 minutes due to an issue with a video uplink to the ISS while holding at Waypoint 2.",
            "published_at": "2022-04-09T12:29:32Z",
            "updated_at": "2022-08-29T13:52:08.002000Z",
            "featured": true,
            "launches": [
                {
                    "launch_id": "a3eeb03b-a209-4255-91b5-772dc0d2150e",
                    "provider": "Launch Library 2"
                }
            ],
            "events": [
                {
                    "event_id": 331,
                    "provider": "Launch Library 2"
                }
            ]
        },
        {
            "id": 14515,
            "title": "NASA begins critical Artemis countdown rehearsal at Kennedy Space Center",
            "url": "https://spaceflightnow.com/2022/04/01/nasa-begins-critical-artemis-countdown-rehearsal-at-kennedy-space-center/",
            "image_url": "https://spaceflightnow.com/wp-content/uploads/2022/04/KSC-20220318-PH-KLS03_0014large.jpg",
            "news_site": "Spaceflight Now",
            "summary": "NASA commenced a two-day countdown dress rehearsal for the agency’s huge Space Launch System moon rocket Friday, with clocks ticking down to a critical milestone Sunday, when the heavy-lifter will be fueled and pressurized on the launch pad for the first time.",
            "published_at": "2022-04-01T22:59:23Z",
            "updated_at": "2022-04-02T08:37:06.412000Z",
            "featured": true,
            "launches": [
                {
                    "launch_id": "65896761-b6ca-4df3-9699-e077a360c52a",
                    "provider": "Launch Library 2"
                }
            ],
            "events": [
                {
                    "event_id": 507,
                    "provider": "Launch Library 2"
                }
            ]
        },
        {
            "id": 13696,
            "title": "Orbital Insertion Burn a Success, Webb Arrives at L2",
            "url": "https://blogs.nasa.gov/webb/2022/01/24/orbital-insertion-burn-a-success-webb-arrives-at-l2/",
            "image_url": "https://webb.nasa.gov/content/webbLaunch/assets/images/orbit/trajectoryMapping2.41-NoText-1800px.jpg",
            "news_site": "NASA",
            "summary": "Today, at 2 p.m. EST, Webb fired its onboard thrusters for nearly five minutes (297 seconds) to complete the final postlaunch course correction to Webb’s trajectory. This mid-course correction burn inserted Webb toward its final orbit around the second Sun-Earth Lagrange point, or L2, nearly 1 million miles away from the Earth.",
            "published_at": "2022-01-24T19:00:00Z",
            "updated_at": "2022-01-24T19:24:55.554000Z",
            "featured": true,
            "launches": [
                {
                    "launch_id": "d0fa4bb2-80ea-4808-af08-7785dde53bf6",
                    "provider": "Launch Library 2"
                }
            ],
            "events": [
                {
                    "event_id": 488,
                    "provider": "Launch Library 2"
                }
            ]
        }
    ]
}